{"coming":[{"id":1229308,"img":"http://p0.meituan.net/w.h/movie/fb5cf831b50e845121fd207b01c066801817376.jpg","wish":56953,"wishst":0,"nm":"第十一回","comingTitle":"4月2日 周五"},{"id":1212538,"img":"http://p0.meituan.net/w.h/movie/a4af920fda5bcd9ba86bb20fe402d2ea1945234.jpg","wish":29737,"wishst":0,"nm":"合法伴侣","comingTitle":"3月12日 周五"},{"id":345006,"img":"http://p0.meituan.net/w.h/movie/8e5dadbb51a762ac594407d42e77f5fc2698011.jpg","wish":135882,"wishst":0,"nm":"西游记之再世妖王","comingTitle":"4月2日 周五"},{"id":1222234,"img":"http://p0.meituan.net/w.h/movie/e2ecb7beb8dadc9f07f2fad9820459f92275588.jpg","wish":133633,"wishst":0,"nm":"我的姐姐","comingTitle":"4月2日 周五"},{"id":1320283,"img":"http://p0.meituan.net/w.h/movie/1c4745fb09d88a8531ab62cebd573b782177426.jpg","wish":126060,"wishst":0,"nm":"你的婚礼","comingTitle":"5月20日 周四"},{"id":1212303,"img":"http://p0.meituan.net/w.h/movie/addd3573cf7266d3ca54887bdb00bb192164382.jpg","wish":67043,"wishst":0,"nm":"古董局中局","comingTitle":"4月30日 周五"},{"id":1241385,"img":"http://p0.meituan.net/w.h/movie/5c63513c7545c15ae829bc786305976a4866588.jpg","wish":104687,"wishst":0,"nm":"秘密访客","comingTitle":"5月1日 周六"},{"id":894008,"img":"http://p1.meituan.net/w.h/moviemachine/9be184648a639e0976887c9fd63385b36499634.jpg","wish":18369,"wishst":0,"nm":"寻龙传说","comingTitle":"3月5日 周五"},{"id":1301774,"img":"http://p1.meituan.net/w.h/movie/7eb748695cf975cf876f7d3524a865d71100054.jpg","wish":42053,"wishst":0,"nm":"错爱迷踪","comingTitle":"3月5日 周五"},{"id":248836,"img":"http://p0.meituan.net/w.h/movie/1b5c6e43652256fbcdb9631132c9e7751898465.jpg","wish":17565,"wishst":0,"nm":"八月未央","comingTitle":"4月16日 周五"}],"paging":{"hasMore":true,"limit":10,"offset":0,"total":38}}